{ "frames": [
   {
    "filename": "castle 0.ase",
    "frame": { "x": 0, "y": 0, "w": 192, "h": 192 },
    "rotated": false,
    "trimmed": false,
    "spriteSourceSize": { "x": 0, "y": 0, "w": 192, "h": 192 },
    "sourceSize": { "w": 192, "h": 192 },
    "duration": 100
   },
   {
    "filename": "castle 1.ase",
    "frame": { "x": 192, "y": 0, "w": 192, "h": 192 },
    "rotated": false,
    "trimmed": false,
    "spriteSourceSize": { "x": 0, "y": 0, "w": 192, "h": 192 },
    "sourceSize": { "w": 192, "h": 192 },
    "duration": 100
   },
   {
    "filename": "castle 2.ase",
    "frame": { "x": 384, "y": 0, "w": 192, "h": 192 },
    "rotated": false,
    "trimmed": false,
    "spriteSourceSize": { "x": 0, "y": 0, "w": 192, "h": 192 },
    "sourceSize": { "w": 192, "h": 192 },
    "duration": 100
   }
 ],
 "meta": {
  "app": "http://www.aseprite.org/",
  "version": "1.2.6",
  "image": "D:\\projects\\rtsTests\\rtsTests\\castle.png",
  "format": "I8",
  "size": { "w": 576, "h": 192 },
  "scale": "1",
  "frameTags": [
   { "name": "DEF", "from": 0, "to": 0, "direction": "forward" },
   { "name": "DAM", "from": 1, "to": 1, "direction": "forward" },
   { "name": "DES", "from": 2, "to": 2, "direction": "forward" }
  ]
 }
}
